21.32525,-157.943,1,0.05
21.32525,-157.943,1,0.05
21.32525,-157.9429,1,0.05
21.32525,-157.9429,1,0.05
21.32525,-157.9429,1,0.05
21.32525,-157.9429,1,0.05
21.32526,-157.9429,1,0.05
21.32526,-157.9428,1,0.05
21.32526,-157.9428,1,0.05
21.32526,-157.9428,1,0.05
21.32526,-157.9428,1,0.05
21.32526,-157.9427,1,0.05
21.32526,-157.9427,1,0.05
21.32526,-157.9427,1,0.05
21.32526,-157.9427,1,0.05
21.32526,-157.9426,1,0.05
21.32526,-157.9426,1,0
21.32526,-157.9426,1,0
21.32526,-157.9425,1,0
21.32527,-157.9425,1,0
21.32527,-157.9425,1,0
21.32527,-157.9424,1,0
21.32527,-157.9424,1,0
21.32527,-157.9424,1,0
21.32527,-157.9423,1,0
21.32527,-157.9423,1,0
21.32527,-157.9422,1,0.05
21.32527,-157.9422,1,0.05
21.32528,-157.9422,1,0.05
21.32528,-157.9421,1,0.05
21.32528,-157.9421,1,0.05
21.32528,-157.942,1,0.05
21.32528,-157.942,1,0.05
21.32528,-157.942,1,0.05
21.32528,-157.9419,1,0.05
21.32528,-157.9418,1,0.05
21.32529,-157.9418,1,0.05
21.32529,-157.9418,1,0.05
21.32529,-157.9417,1,0.05
21.32529,-157.9417,1,0.05
21.32528,-157.9416,1,0
21.32528,-157.9416,1,0
21.32528,-157.9415,1,0
21.32528,-157.9415,1,0
21.32528,-157.9414,1,0
21.32528,-157.9414,1,0
21.32528,-157.9413,1,0
21.32527,-157.9412,1,0
21.32527,-157.9412,1,0
21.32527,-157.9411,1,0
21.32527,-157.9411,1,0
21.32526,-157.941,1,0
21.32526,-157.9409,1,0
21.32526,-157.9409,1,0
21.32526,-157.9408,1,0
21.32525,-157.9408,1,0
21.32525,-157.9407,1,0
21.32525,-157.9407,1,0
21.32525,-157.9406,1,0
21.32524,-157.9405,1,0
21.32524,-157.9404,1,0
21.32524,-157.9404,1,0
21.32524,-157.9403,1,0
21.32524,-157.9402,1,0
21.32523,-157.9402,1,0
21.32523,-157.9401,1,0
21.32523,-157.9401,1,0
21.32523,-157.94,1,0
21.32522,-157.9399,1,0
21.32522,-157.9398,1,-0.05
21.32522,-157.9397,1,-0.05
21.32522,-157.9397,1,-0.05
21.32521,-157.9396,1,0
21.32521,-157.9395,1,0
21.32521,-157.9395,1,0
21.32521,-157.9394,1,0
21.32521,-157.9393,1,0
21.3252,-157.9392,1,0
21.3252,-157.9391,1,0
21.3252,-157.939,1,0
21.3252,-157.939,1,0
21.3252,-157.9389,1,0
21.3252,-157.9388,1,0
21.3252,-157.9387,1,0
21.3252,-157.9386,1,0
21.3252,-157.9386,1,0
21.3252,-157.9385,1,0
21.32521,-157.9384,1,0
21.32521,-157.9383,1,0
21.32522,-157.9382,1,0
21.32522,-157.9381,1,0
21.32523,-157.938,1,0
21.32524,-157.938,1,0
21.32525,-157.9379,1,0
21.32526,-157.9378,1,0
21.32528,-157.9377,1,0
21.3253,-157.9376,1,0
21.32532,-157.9375,1,0
21.32533,-157.9375,1,0
21.32535,-157.9374,1,0
21.32537,-157.9373,1,0
21.32539,-157.9373,1,0
21.32543,-157.9371,1,0
21.32546,-157.9371,1,0
21.3255,-157.937,1,0
21.32553,-157.9369,1,0
21.32558,-157.9368,1,0
21.32562,-157.9368,1,0
21.32566,-157.9367,1,0
21.32566,-157.9367,1,0
21.32566,-157.9367,1,0
21.32568,-157.9367,1,0
21.32568,-157.9367,1,0
21.32581,-157.9365,1,0
21.32581,-157.9365,1,0
21.32581,-157.9365,1,0
21.32589,-157.9364,1,0.05
21.32589,-157.9364,1,0.05
21.32589,-157.9364,1,0.05
21.32589,-157.9364,1,0.05
21.32589,-157.9364,1,0.05
21.32607,-157.9362,1,0.05
21.32607,-157.9362,1,0.05
21.32633,-157.9361,1,0.05
21.32633,-157.9361,1,0.05
21.32633,-157.9361,1,0.05
21.32647,-157.936,1,0.05
21.32675,-157.9359,1,0.05
21.32685,-157.9359,1,0.05
21.32692,-157.9359,1,0.05
21.32697,-157.9359,1,0.05
21.32707,-157.9359,1,0.05
21.32712,-157.9359,1,0.05
21.32722,-157.9359,1,0.05
21.32731,-157.9359,1,0.05
21.32736,-157.9359,1,0.05
21.32745,-157.9359,1,0.05
21.32753,-157.9359,1,0.05
21.32762,-157.9359,1,0.05
21.32769,-157.936,1,0.05
21.32774,-157.936,1,0.05
21.32784,-157.936,1,0.05
21.32792,-157.9361,1,0.05
21.32799,-157.9361,1,0.05
21.32808,-157.9361,1,0.05
21.32813,-157.9362,1,0.05
21.32822,-157.9362,1,0.05
21.32827,-157.9363,1,0.05
21.32832,-157.9363,1,0.05
21.32839,-157.9364,1,0.05
21.32842,-157.9364,1,0.05
21.32851,-157.9365,1,0.05
21.32856,-157.9366,1,0.05
21.32862,-157.9366,1,0.05
21.32866,-157.9367,1,0.05
21.3287,-157.9367,1,0.05
21.32878,-157.9368,1,0.05
21.32881,-157.9369,1,0.05
21.32886,-157.937,1,0.05
21.32889,-157.937,1,0.05
21.32894,-157.9371,1,0.05
21.32898,-157.9371,1,0.05
21.329,-157.9372,1,0.05
21.32904,-157.9373,1,0.05
21.32907,-157.9373,1,0.05
21.3291,-157.9374,1,0.05
21.32912,-157.9374,1,0.05
21.32918,-157.9376,1,0.05
21.32919,-157.9376,1,0.05
21.32924,-157.9377,1,0.05
21.32927,-157.9378,1,0.05
21.3293,-157.9379,1,0.05
21.32932,-157.9379,1,0.05
21.32935,-157.938,1,0.05
21.32939,-157.9381,1,0.05
21.32941,-157.9381,1,0.05
21.32945,-157.9382,1,0.05
21.32948,-157.9383,1,0.05
21.32951,-157.9384,1,0.05
21.32953,-157.9384,1,0.05
21.32956,-157.9385,1,0.05
21.3296,-157.9386,1,0.05
21.32963,-157.9386,1,0.05
21.32967,-157.9387,1,0.05
21.32971,-157.9388,1,0.05
21.32975,-157.9388,1,0.05
21.3298,-157.9389,1,0.05
21.32983,-157.939,1,0.05
21.32988,-157.939,1,0.05
21.32991,-157.9391,1,0.05
21.32997,-157.9392,1,0.05
21.33001,-157.9392,1,0.05
21.33006,-157.9393,1,0.05
21.33011,-157.9393,1,0.05
21.33017,-157.9394,1,0.05
21.33022,-157.9395,1,0.05
21.33025,-157.9395,1,0.05
21.33034,-157.9396,1,0.05
21.33041,-157.9396,1,0.05
21.33046,-157.9397,1,0.05
21.33051,-157.9397,1,0.05
21.33063,-157.9397,1,0.05
21.33068,-157.9398,1,0.05
21.33075,-157.9398,1,0.05
21.33085,-157.9398,1,0.05
21.3309,-157.9398,1,0.05
21.331,-157.9399,1,0.05
21.33108,-157.9399,1,0.05
21.33116,-157.9399,1,0.05
21.33122,-157.9399,1,0.05
21.33132,-157.9399,1,0.05
21.33139,-157.9399,1,0.05
21.33147,-157.9399,1,0.05
21.33155,-157.9399,1,0.05
21.33165,-157.9399,1,0.05
21.33171,-157.9399,1,0.05
21.33178,-157.9399,1,0.05
21.3319,-157.9398,1,0.05
21.33197,-157.9398,1,0.05
21.33203,-157.9398,1,0.05
21.33209,-157.9397,1,0.05
21.33218,-157.9397,1,0.05
21.33226,-157.9396,1,0.05
21.33233,-157.9395,1,0.05
21.33238,-157.9395,1,0.05
21.33245,-157.9394,1,0.05
21.33249,-157.9394,1,0.05
21.33257,-157.9393,1,0.05
21.33263,-157.9392,1,0.05
21.33267,-157.9392,1,0.05
21.33273,-157.9391,1,0.05
21.33277,-157.939,1,0.05
21.3328,-157.939,1,0.05
21.33286,-157.9389,1,0.05
21.33289,-157.9388,1,0.05
21.33293,-157.9388,1,0.05
21.33298,-157.9387,1,0.05
21.33301,-157.9386,1,0.05
21.33304,-157.9385,1,0.05
21.33308,-157.9385,1,0.05
21.33311,-157.9384,1,0.05
21.33315,-157.9383,1,0.05
21.33316,-157.9383,1,0.05
21.3332,-157.9382,1,0.05
21.33324,-157.9381,1,0.05
21.33328,-157.938,1,0.05
21.3333,-157.938,1,0.05
21.33333,-157.9379,1,0.05
21.33335,-157.9379,1,0.05
21.33339,-157.9378,1,0.05
21.33341,-157.9377,1,0.05
21.33346,-157.9376,1,0.05
21.3335,-157.9375,1,0.05
21.33353,-157.9375,1,0.05
21.33358,-157.9374,1,0.05
21.3336,-157.9373,1,0.05
21.33364,-157.9373,1,0.05
21.33367,-157.9372,1,0.05
21.33371,-157.9372,1,0.05
21.33377,-157.9371,1,0.05
21.33381,-157.937,1,0.05
21.33385,-157.9369,1,0.05
21.33391,-157.9369,1,0.05
21.33396,-157.9368,1,0.05
21.33401,-157.9367,1,0.05
21.33407,-157.9367,1,0.05
21.33414,-157.9366,1,0.05
21.33418,-157.9366,1,0.05
21.33426,-157.9365,1,0.05
21.33431,-157.9365,1,0.05
21.3344,-157.9364,1,0.05
21.33445,-157.9364,1,0.05
21.33454,-157.9363,1,0.05
21.3346,-157.9363,1,0.05
21.33469,-157.9363,1,0.05
21.33476,-157.9362,1,0.05
21.33485,-157.9362,1,0.05
21.33492,-157.9362,1,0.05
21.33502,-157.9362,1,0.05
21.33509,-157.9362,1,0.05
21.33519,-157.9362,1,0.05
21.33526,-157.9362,1,0.05
21.33537,-157.9362,1,0.05
21.33544,-157.9362,1,0.05
21.33554,-157.9362,1,0.05
21.33561,-157.9362,1,0.05
21.33572,-157.9363,1,0.05
21.33579,-157.9363,1,0.05
21.33589,-157.9363,1,0.05
21.33595,-157.9364,1,0.05
21.33605,-157.9364,1,0.05
21.33611,-157.9365,1,0.05
21.3362,-157.9365,1,0.05
21.33626,-157.9366,1,0.05
21.33634,-157.9367,1,0.05
21.3364,-157.9367,1,0.05
21.33646,-157.9368,1,0.05
21.33651,-157.9368,1,0.05
21.33656,-157.9369,1,0.05
21.33662,-157.937,1,0.05
21.33669,-157.9371,1,0.05
21.33673,-157.9371,1,0.05
21.33678,-157.9372,1,0.05
21.33682,-157.9373,1,0.05
21.33687,-157.9373,1,0.05
21.33691,-157.9374,1,0.05
21.33696,-157.9375,1,0.05
21.337,-157.9376,1,0.05
21.33704,-157.9376,1,0.05
21.33708,-157.9377,1,0.05
21.33712,-157.9378,1,0.05
21.33715,-157.9378,1,0.05
21.3372,-157.9379,1,0.05
21.33723,-157.938,1,0.05
21.33727,-157.9381,1,0.05
21.33732,-157.9382,1,0.05
21.33735,-157.9383,1,0.05
21.33737,-157.9383,1,0.05
21.33741,-157.9384,1,0.05
21.33744,-157.9385,1,0.05
21.33748,-157.9386,1,0.05
21.33751,-157.9387,1,0.05
21.33755,-157.9388,1,0.05
21.33757,-157.9388,1,0.05
21.33761,-157.9389,1,0.05
21.33763,-157.939,1,0.05
21.33767,-157.9391,1,0.05
21.33771,-157.9392,1,0.05
21.33773,-157.9393,1,0.05
21.33776,-157.9394,1,0.05
21.33779,-157.9395,1,0.05
21.33782,-157.9396,1,0.05
21.33785,-157.9397,1,0.05
21.33787,-157.9398,1,0.05
21.3379,-157.9399,1,0.05
21.33792,-157.94,1,0.05
21.33796,-157.9401,1,0.05
21.33797,-157.9402,1,0.05
21.338,-157.9403,1,0.05
21.33802,-157.9404,1,0.05
21.33805,-157.9405,1,0.05
21.33806,-157.9406,1,0.05
21.33808,-157.9407,1,0.05
21.3381,-157.9408,1,0.05
21.33812,-157.9409,1,0.05
21.33813,-157.941,1,0.05
21.33815,-157.9411,1,0.05
21.33816,-157.9412,1,0.05
21.33818,-157.9413,1,0.05
21.33819,-157.9414,1,0.05
21.3382,-157.9415,1,0.05
21.33821,-157.9416,1,0.05
21.33822,-157.9417,1,0.05
21.33822,-157.9418,1,0.05
21.33823,-157.9419,1,0.05
21.33823,-157.942,1,0.05
21.33824,-157.9421,1,0.05
21.33824,-157.9422,1,0.05
21.33824,-157.9424,1,0.05
21.33824,-157.9424,1,0.05
21.33824,-157.9426,1,0.05
21.33824,-157.9427,1,0.05
21.33824,-157.9427,1,0.05
21.33823,-157.9428,1,0.05
21.33823,-157.9429,1,0.05
21.33822,-157.943,1,0.05
21.33821,-157.9431,1,0.05
21.33821,-157.9432,1,0.05
21.33819,-157.9433,1,0.05
21.33819,-157.9434,1,0.05
21.33817,-157.9435,1,0.05
21.33817,-157.9436,1,0.05
21.33815,-157.9437,1,0.05
21.33814,-157.9438,1,0.05
21.33812,-157.9439,1,0.05
21.33811,-157.944,1,0.05
21.33809,-157.9441,1,0.05
21.33808,-157.9442,1,0.05
21.33805,-157.9443,1,0.1
21.33804,-157.9444,1,0.1
21.33802,-157.9445,1,0.1
21.338,-157.9445,1,0.1
21.33797,-157.9447,1,0.1
21.33796,-157.9447,1,0.1
21.33793,-157.9448,1,0.1
21.33792,-157.9449,1,0.1
21.33789,-157.945,1,0.1
21.33787,-157.9451,1,0.1
21.33785,-157.9452,1,0.1
21.33782,-157.9453,1,0.1
21.3378,-157.9454,1,0.05
21.33778,-157.9455,1,0.05
21.33776,-157.9456,1,0.05
21.33774,-157.9457,1,0.05
21.33771,-157.9458,1,0.05
21.33769,-157.9459,1,0.05
21.33767,-157.946,1,0.05
21.33765,-157.9461,1,0.05
21.33763,-157.9462,1,0.05
21.33761,-157.9463,1,0.05
21.33759,-157.9464,1,0.05
21.33756,-157.9465,1,0.05
21.33754,-157.9466,1,0.05
21.33752,-157.9467,1,0.05
21.3375,-157.9468,1,0.05
21.33749,-157.9469,1,0.05
21.33746,-157.9471,1,0.05
21.33745,-157.9472,1,0.05
21.33743,-157.9473,1,0.05
21.33742,-157.9474,1,0.05
21.3374,-157.9475,1,0.05
21.33739,-157.9476,1,0.05
21.33737,-157.9477,1,0.05
21.33736,-157.9478,1,0.05
21.33735,-157.9479,1,0.05
21.33735,-157.948,1,0.05
21.33734,-157.9482,1,0.05
21.33733,-157.9483,1,0.05
21.33733,-157.9483,1,0.05
21.33732,-157.9485,1,0.05
21.33732,-157.9486,1,0.05
21.33732,-157.9487,1,0.05
21.33733,-157.9489,1,0.05
21.33733,-157.9489,1,0.05
21.33734,-157.9491,1,0.05
21.33735,-157.9492,1,0.05
21.33736,-157.9493,1,0.05
21.33737,-157.9494,1,0.05
21.33738,-157.9495,1,0.05
21.33741,-157.9496,1,0.05
21.33742,-157.9497,1,0.05
21.33745,-157.9499,1,0.05
21.33747,-157.95,1,0.05
21.33749,-157.95,1,0
21.33754,-157.9502,1,-0.1
21.33756,-157.9503,1,-0.2
21.33761,-157.9504,1,-0.25
21.33764,-157.9505,1,-0.3
21.33768,-157.9506,1,-0.3
21.33773,-157.9508,1,-0.3
21.33776,-157.9508,1,-0.3
21.33781,-157.9509,1,-0.3
21.33787,-157.9511,1,-0.3
21.3379,-157.9511,1,-0.2
21.33795,-157.9512,1,-0.15
21.33799,-157.9513,1,-0.1
21.33804,-157.9514,1,-0.05
21.33809,-157.9515,1,-0.05
21.33815,-157.9516,1,0
21.3382,-157.9518,1,0
21.33825,-157.9518,1,0
21.33829,-157.9519,1,0
21.33835,-157.952,1,0
21.33839,-157.9521,1,0
21.33845,-157.9522,1,-0.05
21.33849,-157.9523,1,-0.1
21.33855,-157.9524,1,-0.1
21.33862,-157.9525,1,-0.1
21.33867,-157.9526,1,-0.1
21.33872,-157.9527,1,-0.1
21.33875,-157.9527,1,-0.1
21.33882,-157.9529,1,-0.1
21.33886,-157.9529,1,-0.1
21.33893,-157.953,1,-0.1
21.339,-157.9532,1,-0.15
21.33904,-157.9532,1,-0.15
21.33911,-157.9533,1,-0.15
21.33916,-157.9534,1,-0.15
21.33922,-157.9535,1,-0.15
21.33927,-157.9536,1,-0.15
21.3393,-157.9536,1,-0.15
21.33938,-157.9538,1,-0.15
21.33944,-157.9538,1,-0.15
21.33949,-157.9539,1,-0.2
21.33954,-157.954,1,-0.2
21.33959,-157.9541,1,-0.2
21.33965,-157.9542,1,-0.2
21.33969,-157.9543,1,-0.2
21.33974,-157.9544,1,-0.2
21.33978,-157.9544,1,-0.2
21.33983,-157.9545,1,-0.2
21.33987,-157.9546,1,-0.2
21.33991,-157.9547,1,-0.2
21.33996,-157.9548,1,-0.2
21.34001,-157.9549,1,-0.2
21.34005,-157.955,1,-0.2
21.34008,-157.9551,1,-0.2
21.34012,-157.9552,1,-0.2
21.34015,-157.9553,1,-0.2
21.34017,-157.9554,1,-0.2
21.3402,-157.9555,1,-0.2
21.34022,-157.9556,1,-0.2
21.34024,-157.9557,1,-0.1
21.34025,-157.9558,1,-0.05
21.34026,-157.9559,1,-0.05
21.34026,-157.956,1,0
21.34026,-157.9561,1,0
21.34026,-157.9561,1,0
21.34025,-157.9563,1,0
21.34023,-157.9563,1,0
21.34021,-157.9565,1,0
21.34019,-157.9565,1,0
21.34017,-157.9566,1,0
21.34014,-157.9567,1,0
21.3401,-157.9568,1,0
21.34007,-157.9569,1,0
21.34002,-157.957,1,0
21.33999,-157.957,1,0
21.33993,-157.9571,1,0
21.33988,-157.9572,1,0
21.33983,-157.9573,1,0
21.33976,-157.9573,1,0
21.33968,-157.9574,1,0
21.33963,-157.9574,1,0
21.33955,-157.9575,1,0
21.33949,-157.9576,1,0
21.33942,-157.9576,1,0
21.33934,-157.9576,1,0
21.33928,-157.9576,1,0
21.33918,-157.9577,1,0
21.33909,-157.9577,1,0
21.33903,-157.9577,1,0
21.33895,-157.9577,1,0
21.33888,-157.9578,1,0
21.33879,-157.9578,1,0
21.33873,-157.9578,1,0
21.33864,-157.9578,1,0
21.33858,-157.9578,1,0
21.3385,-157.9578,1,0
21.33842,-157.9578,1,0
21.33834,-157.9578,1,0
21.33828,-157.9578,1,0
21.33819,-157.9578,1,0
21.33813,-157.9578,1,0
21.33803,-157.9578,1,0
21.33798,-157.9578,1,0
21.33789,-157.9578,1,0
21.33783,-157.9578,1,0
21.33773,-157.9579,1,0
21.33767,-157.9579,1,0
21.33759,-157.9579,1,0
21.33752,-157.9579,1,0
21.33742,-157.9579,1,0
21.33737,-157.9579,1,0
21.33727,-157.9579,1,0
21.33721,-157.9579,1,0
21.33711,-157.9579,1,0
21.33705,-157.9579,1,0
21.33696,-157.9579,1,0
21.33688,-157.958,1,0
21.33679,-157.958,1,0
21.33673,-157.958,1,0
21.33664,-157.958,1,0
21.33655,-157.9581,1,0
21.33645,-157.9581,1,0
21.3364,-157.9581,1,0
21.3363,-157.9582,1,0
21.33624,-157.9582,1,0
21.33616,-157.9583,1,0
21.33611,-157.9583,1,0
21.33604,-157.9584,1,0
21.33599,-157.9584,1,0
21.33592,-157.9585,1,0
21.33588,-157.9585,1,0
21.33581,-157.9586,1,0
21.33577,-157.9586,1,0
21.33569,-157.9586,1,0
21.33565,-157.9586,1,0
21.33557,-157.9587,1,0
21.33553,-157.9587,1,0
21.33547,-157.9587,1,0
21.33543,-157.9588,1,0
21.33536,-157.9588,1,0
21.33531,-157.9588,1,0
21.33526,-157.9588,1,0
21.33522,-157.9588,1,0
21.33518,-157.9588,1,0
21.33515,-157.9588,1,0
21.33511,-157.9589,1,0
21.33508,-157.9589,1,0
21.33505,-157.9589,1,0
21.33503,-157.9589,1,0
21.33501,-157.9589,1,0
21.335,-157.9589,1,0
21.33499,-157.9589,1,0
21.33497,-157.9589,1,0
21.33496,-157.9589,1,0
21.33495,-157.9589,1,0
21.33495,-157.9589,1,0
21.33494,-157.959,1,0
21.33494,-157.959,1,0
21.33493,-157.959,1,0
21.33493,-157.959,1,0
21.33493,-157.959,1,0
21.33493,-157.959,1,0
21.33493,-157.959,1,0
21.33493,-157.959,1,0
21.33493,-157.959,1,0
21.33493,-157.959,1,0
21.33494,-157.959,1,0
21.33494,-157.959,1,0
21.33494,-157.959,1,0
21.33494,-157.959,1,0
21.33494,-157.959,1,0
21.33495,-157.959,1,0
21.33495,-157.959,1,0
21.33495,-157.959,1,0
21.33495,-157.959,1,0
21.33496,-157.959,1,0
21.33496,-157.959,1,0
21.33497,-157.959,1,0
21.33497,-157.959,1,0
21.33497,-157.959,1,0
21.33497,-157.959,1,0
21.33498,-157.959,1,0
21.33498,-157.959,1,0
21.33498,-157.959,1,0
21.33498,-157.959,1,0
21.33499,-157.959,1,0
21.33499,-157.959,1,0
21.335,-157.959,1,0
21.335,-157.959,1,0
21.335,-157.959,1,0
21.335,-157.959,1,0
21.33501,-157.959,1,0
21.33501,-157.959,1,0
21.33501,-157.959,1,0
21.33501,-157.959,1,0
21.33502,-157.959,1,0
21.33502,-157.959,1,0
21.33503,-157.959,1,0
21.33503,-157.959,1,0
21.33503,-157.959,1,0
21.33503,-157.959,1,0
21.33503,-157.959,1,0
21.33503,-157.959,1,0
21.33503,-157.959,1,0
21.33504,-157.959,1,0
21.33504,-157.959,1,0
21.33505,-157.959,1,0
21.33505,-157.959,1,0
21.33505,-157.959,1,0
21.33505,-157.959,1,0
21.33505,-157.959,1,0
21.33505,-157.959,1,0
21.33505,-157.959,1,0
21.33505,-157.959,1,0
21.33505,-157.959,1,0
21.33505,-157.959,1,0
21.33505,-157.959,1,0
21.33505,-157.959,1,0
21.33505,-157.959,1,0
21.33505,-157.959,1,0
21.33505,-157.959,1,0
21.33505,-157.959,1,0
21.33505,-157.959,1,0
21.33505,-157.959,1,0
21.33505,-157.959,1,0
21.33505,-157.959,1,0
21.33505,-157.959,1,0
21.33505,-157.959,1,0
21.33505,-157.959,1,0
21.33505,-157.959,1,0
21.33505,-157.959,1,0
21.33505,-157.959,1,0
21.33505,-157.959,1,0
21.33505,-157.959,1,0
21.33505,-157.959,1,0
21.33505,-157.959,1,0
21.33505,-157.959,1,0
21.33505,-157.959,1,0
21.33505,-157.959,1,0
21.33505,-157.959,1,0
21.33505,-157.959,1,0
21.33505,-157.959,1,0
21.33505,-157.959,1,0
21.33505,-157.959,1,0
21.33505,-157.959,1,0
21.33505,-157.959,1,0
21.33505,-157.959,1,0
21.33505,-157.959,1,0
21.33505,-157.959,1,0
21.33505,-157.959,1,0
21.33505,-157.959,1,0
21.33505,-157.959,1,0
21.33505,-157.959,1,0
21.33505,-157.959,1,0
21.33505,-157.959,1,0
21.33505,-157.959,1,0
21.33505,-157.959,1,0
21.33505,-157.959,1,0
21.33505,-157.959,1,0
21.33505,-157.959,1,0
21.33505,-157.959,1,0
21.33505,-157.959,1,0
21.33505,-157.959,1,0
21.33505,-157.959,1,0
21.33505,-157.959,1,0
21.33505,-157.959,1,0
21.33505,-157.959,1,0
21.33505,-157.959,1,0
21.33505,-157.959,1,0
21.33505,-157.959,1,0
21.33505,-157.959,1,0
21.33505,-157.959,1,0
